…
is_public_suffix(doms)
##  [1]  TRUE  TRUE FALSE FALSE  TRUE  TRUE FALSE FALSE  TRUE FALSE FALSE FALSE  TRUE FALSE FALSE FALSE  TRUE FALSE FALSE
## [20] FALSE  TRUE FALSE FALSE FALSE FALSE  TRUE FALSE FALSE FALSE  TRUE FALSE FALSE  TRUE FALSE FALSE  TRUE FALSE  TRUE
## [39] FALSE FALSE  TRUE FALSE FALSE FALSE FALSE  TRUE  TRUE FALSE FALSE FALSE FALSE  TRUE FALSE FALSE  TRUE FALSE FALSE
## [58]  TRUE FALSE FALSE

suffix_extract(doms)
## # A tibble: 60 x 6
##    orig             normalized       subdomain apex            domain  suffix  
##    <chr>            <chr>            <chr>     <chr>           <chr>   <chr>   
##  1 ""               ""               <NA>      <NA>            <NA>    ""      
##  2 com              com              <NA>      <NA>            <NA>    com     
##  3 example.com      example.com      ""        example.com     example com     
##  4 www.example.com  www.example.com  www       example.com     example com     
##  5 .com             .com             <NA>      <NA>            <NA>    .com    
##  6 .example         .example         <NA>      <NA>            <NA>    .example
##  7 .example.com     .example.com     <NA>      <NA>            <NA>    com     
##  8 .example.example .example.example <NA>      <NA>            <NA>    example 
##  9 example          example          <NA>      <NA>            <NA>    example 
## 10 example.example  example.example  ""        example.example example example 
## # ... with 50 more rows
…
